<svg xmlns="http://www.w3.org/2000/svg" width="90" height="84" viewBox="0 0 90 84">
  <text id="_02" data-name="02" transform="translate(0 67)" fill="#252e41" font-size="69" font-family="Montserrat-Black, Montserrat" font-weight="800" opacity="0.07"><tspan x="0" y="0">02</tspan></text>
</svg>
