<svg xmlns="http://www.w3.org/2000/svg" width="55.953" height="66.231" viewBox="0 0 55.953 66.231">
  <g id="Group_1697" data-name="Group 1697" transform="translate(-583.023 -344.826)">
    <g id="Group_1663" data-name="Group 1663" transform="translate(298.69 -8.334)">
      <path id="Path_166" data-name="Path 166" d="M594.129,113.953c-2.327,3.362-4.862,7.091-4.862,7.091h-3.7s-2.519-3.729-4.846-7.091c-2.281-3.295.176-9.512,6.709-10C593.963,104.441,596.41,110.658,594.129,113.953Z" transform="translate(-274.93 273.965)" fill="none" stroke="#35badb" stroke-miterlimit="10" stroke-width="1.6"/>
      <path id="Path_167" data-name="Path 167" d="M595.171,104.923l-.957,4.681-3.579-.207a10.44,10.44,0,0,1-1.846,2.591l.952,3.693-4.87,2.624-2.263-3.058c-.212.052-2.265.062-2.265.062l-.118.026-1.03,1.332-1.232,1.639-4.4-1.894.921-3.468a10.577,10.577,0,0,1-2.168-2.337l-3.806.189-1.325-4.6,3.269-1.475a1.393,1.393,0,0,1-.005-.145,10.475,10.475,0,0,1,.434-3.005l-2.555-2.834,2.726-3.931,3.207,1.6a10.209,10.209,0,0,1,3.5-1.826L578.641,91h4.784l.512,3.414a10.2,10.2,0,0,1,2.906,1.228l3.43-1.7,3.021,3.692-2.421,2.63a10.358,10.358,0,0,1,.838,3.063Z" transform="translate(-268.799 280.217)" fill="none" stroke="#35badb" stroke-miterlimit="10" stroke-width="1.6"/>
      <path id="Path_168" data-name="Path 168" d="M594.715,137.632a.943.943,0,0,1-.884.905h-4.7a.834.834,0,0,1-.884-.776.822.822,0,0,1,.862-.776h4.719a.965.965,0,0,1,.367.008A.686.686,0,0,1,594.715,137.632Z" transform="translate(-278.966 258.023)" fill="#fff" stroke="#35badb" stroke-miterlimit="10" stroke-width="1"/>
      <path id="Path_169" data-name="Path 169" d="M594.715,140.776a.834.834,0,0,1-.881.776h-4.7a.834.834,0,0,1-.881-.776h0a.834.834,0,0,1,.881-.776h4.7a.834.834,0,0,1,.881.776Z" transform="translate(-278.966 256.561)" fill="#fff" stroke="#35badb" stroke-miterlimit="10" stroke-width="1"/>
      <path id="Path_170" data-name="Path 170" d="M594.715,143.776a.834.834,0,0,1-.881.776h-4.7a.834.834,0,0,1-.881-.776h0a.834.834,0,0,1,.881-.776h4.7a.834.834,0,0,1,.881.776Z" transform="translate(-278.966 255.113)" fill="#fff" stroke="#35badb" stroke-miterlimit="10" stroke-width="1"/>
      <rect id="Rectangle_760" data-name="Rectangle 760" width="3.621" height="1.552" transform="translate(310.706 399.664)" fill="none" stroke="#35badb" stroke-linejoin="round" stroke-width="1"/>
      <path id="Path_171" data-name="Path 171" d="M590.075,108.667s-3.879.344-4.741,3.448" transform="translate(-277.559 271.688)" fill="none" stroke="#35badb" stroke-linecap="round" stroke-linejoin="round" stroke-width="1"/>
    </g>
    <g id="Group_1685" data-name="Group 1685" transform="translate(585.08 346.883)">
      <line id="Line_45" data-name="Line 45" y2="31.215" transform="translate(0 15.469)" fill="none" stroke="#35badb" stroke-linecap="round" stroke-width="3"/>
      <line id="Line_46" data-name="Line 46" y2="31.215" transform="translate(51.839 15.47)" fill="none" stroke="#35badb" stroke-linecap="round" stroke-width="3"/>
      <line id="Line_47" data-name="Line 47" x2="25.954" y2="15.47" transform="translate(25.885 0)" fill="none" stroke="#35badb" stroke-linecap="round" stroke-width="3"/>
      <line id="Line_48" data-name="Line 48" x1="25.886" y2="15.47" transform="translate(0 0)" fill="none" stroke="#35badb" stroke-linecap="round" stroke-width="3"/>
      <g id="Group_1581" data-name="Group 1581" transform="translate(0 46.647)">
        <line id="Line_49" data-name="Line 49" y1="15.47" x2="25.954" transform="translate(25.886 0)" fill="none" stroke="#35badb" stroke-linecap="round" stroke-width="3"/>
        <line id="Line_50" data-name="Line 50" x1="25.886" y1="15.47" transform="translate(0 0)" fill="none" stroke="#35badb" stroke-linecap="round" stroke-width="3"/>
      </g>
    </g>
  </g>
</svg>
