<svg xmlns="http://www.w3.org/2000/svg" width="8.133" height="15.185" viewBox="0 0 8.133 15.185">
  <path id="Icon_awesome-facebook-f" data-name="Icon awesome-facebook-f" d="M9.21,8.542l.422-2.748H6.994V4.01A1.374,1.374,0,0,1,8.544,2.525h1.2V.186A14.619,14.619,0,0,0,7.614,0,3.355,3.355,0,0,0,4.023,3.7V5.794H1.609V8.542H4.023v6.644H6.994V8.542Z" transform="translate(-1.609)" fill="#252e41"/>
</svg>
